No,Address,Bit,Type,Description
1,302,0,BOOL,TT_IOErr_FS
2,302,1,BOOL,PT_IOErr_FS
3,302,2,BOOL,DP01_CO2_FS
4,302,3,BOOL,DP01_CO2_W
5,302,4,BOOL,DP02_CO2_FS
6,302,5,BOOL,DP02_CO2_W
7,302,6,BOOL,DP03_CO2_LP_FS
8,302,7,BOOL,DP03_CO2_LP_W
9,302,8,BOOL,DP03_CO2_HP_FS
10,302,9,BOOL,DP03_CO2_HP_W
11,302,10,BOOL,DT03_CO2_HT_FS
12,302,11,BOOL,DT03_CO2_HT_W
13,302,12,BOOL,PT02_CO2_HP_FS
14,302,13,BOOL,SC01_CO2_FS
15,302,14,BOOL,SC01_CO2_W
16,302,15,BOOL,TT01_CO2_LT_FS
17,303,0,BOOL,PT04_CO2_HP_FS
18,303,1,BOOL,PT04_CO2_HP_W
19,303,2,BOOL,TT04_CO2_HT_FS
20,303,3,BOOL,TT04_CO2_HT_TS
21,303,4,BOOL,TT04_CO2_HT_W
22,303,5,BOOL,EV3C_CEr_FS
23,303,6,BOOL,EH_CB_FS
24,303,7,BOOL,LP_CB_FS
25,303,8,BOOL,Reserved
26,303,9,BOOL,Reserved
27,303,10,BOOL,Reserved
28,303,11,BOOL,Reserved
29,303,12,BOOL,Reserved
30,303,13,BOOL,Reserved
31,303,14,BOOL,Reserved
32,303,15,BOOL,Reserved
